<svg width="635" height="468" viewBox="0 0 635 468" fill="none" xmlns="http://www.w3.org/2000/svg">
<path d="M635 173.294H368.086V181.126H635V173.294Z" fill="#E6E6E6"/>
<path d="M457.769 107.791H390.151V175.43H457.769V107.791Z" fill="#E6E6E6"/>
<path d="M444.246 121.318H403.675V161.902H444.246V121.318Z" fill="#FF5367"/>
<path d="M558.841 107.791H541.758V175.43H558.841V107.791Z" fill="#E6E6E6"/>
<path d="M558.841 118.47H541.758V126.302H558.841V118.47Z" fill="#FF5367"/>
<path d="M558.841 152.646H541.758V160.478H558.841V152.646Z" fill="#FF5367"/>
<path d="M532.505 107.791H515.423V175.43H532.505V107.791Z" fill="#E6E6E6"/>
<path d="M532.505 118.47H515.423V126.302H532.505V118.47Z" fill="#FF5367"/>
<path d="M532.505 152.646H515.423V160.478H532.505V152.646Z" fill="#FF5367"/>
<path d="M573.559 107.511L558.25 115.093L588.252 175.709L603.561 168.128L573.559 107.511Z" fill="#E6E6E6"/>
<path d="M578.296 117.082L562.987 124.664L566.461 131.682L581.77 124.101L578.296 117.082Z" fill="#FF5367"/>
<path d="M593.455 147.709L578.146 155.291L581.62 162.31L596.929 154.728L593.455 147.709Z" fill="#FF5367"/>
<path d="M415.418 134.941L424.022 149.845L432.624 164.75H415.418H398.214L406.816 149.845L415.418 134.941Z" fill="#E6E6E6"/>
<path d="M430.366 137.789L438.968 152.693L447.571 167.598H430.366H413.161L421.763 152.693L430.366 137.789Z" fill="#E6E6E6"/>
<path d="M436.416 133.422C439.168 133.422 441.398 131.191 441.398 128.438C441.398 125.686 439.168 123.454 436.416 123.454C433.664 123.454 431.434 125.686 431.434 128.438C431.434 131.191 433.664 133.422 436.416 133.422Z" fill="#E6E6E6"/>
<path d="M368.086 73.6147L635 73.6147V65.7828L368.086 65.7828V73.6147Z" fill="#E6E6E6"/>
<path d="M545.317 67.9189L612.935 67.9189V0.279724L545.317 0.279724V67.9189Z" fill="#E6E6E6"/>
<path d="M558.841 54.3911L599.412 54.3911V13.8076L558.841 13.8076V54.3911Z" fill="#FF5367"/>
<path d="M444.246 67.9189H461.328V0.279724H444.246V67.9189Z" fill="#E6E6E6"/>
<path d="M444.246 18.7915L461.328 18.7915V10.9596L444.246 10.9596V18.7915Z" fill="#FF5367"/>
<path d="M444.246 52.967H461.328V45.1351H444.246V52.967Z" fill="#FF5367"/>
<path d="M470.581 67.9189H487.664V0.279724H470.581V67.9189Z" fill="#E6E6E6"/>
<path d="M470.581 18.7915L487.664 18.7915V10.9596L470.581 10.9596V18.7915Z" fill="#FF5367"/>
<path d="M470.581 52.967H487.664V45.1351H470.581V52.967Z" fill="#FF5367"/>
<path d="M399.526 60.617L414.834 68.1987L444.836 7.58182L429.527 0.000130092L399.526 60.617Z" fill="#E6E6E6"/>
<path d="M421.316 16.5899L436.625 24.1716L440.099 17.1528L424.79 9.57114L421.316 16.5899Z" fill="#FF5367"/>
<path d="M406.157 47.2174L421.466 54.7991L424.94 47.7803L409.631 40.1986L406.157 47.2174Z" fill="#FF5367"/>
<path d="M587.668 27.4297L579.065 42.3342L570.463 57.2386H587.668H604.873L596.27 42.3342L587.668 27.4297Z" fill="#E6E6E6"/>
<path d="M572.72 30.2778L564.117 45.1823L555.515 60.0868H572.72H589.925L581.323 45.1823L572.72 30.2778Z" fill="#E6E6E6"/>
<path d="M566.67 25.9115C569.422 25.9115 571.652 23.6801 571.652 20.9275C571.652 18.175 569.422 15.9436 566.67 15.9436C563.918 15.9436 561.688 18.175 561.688 20.9275C561.688 23.6801 563.918 25.9115 566.67 25.9115Z" fill="#E6E6E6"/>
<path d="M368.086 288.636L635 288.636V280.805L368.086 280.805V288.636Z" fill="#E6E6E6"/>
<path d="M545.317 282.94H612.935V215.301H545.317V282.94Z" fill="#E6E6E6"/>
<path d="M558.841 269.413H599.412V228.829H558.841V269.413Z" fill="#FF5367"/>
<path d="M444.246 282.94H461.328V215.301H444.246V282.94Z" fill="#E6E6E6"/>
<path d="M444.246 233.813H461.328V225.981H444.246V233.813Z" fill="#FF5367"/>
<path d="M444.246 267.989H461.328V260.157H444.246V267.989Z" fill="#FF5367"/>
<path d="M470.581 282.94H487.664V215.301H470.581V282.94Z" fill="#E6E6E6"/>
<path d="M470.581 233.813H487.664V225.981H470.581V233.813Z" fill="#FF5367"/>
<path d="M470.581 267.989H487.664V260.157H470.581V267.989Z" fill="#FF5367"/>
<path d="M399.526 275.639L414.834 283.22L444.836 222.603L429.527 215.022L399.526 275.639Z" fill="#E6E6E6"/>
<path d="M421.316 231.611L436.625 239.193L440.099 232.174L424.79 224.593L421.316 231.611Z" fill="#FF5367"/>
<path d="M406.157 262.239L421.466 269.821L424.94 262.802L409.631 255.22L406.157 262.239Z" fill="#FF5367"/>
<path d="M587.668 242.451L579.065 257.356L570.463 272.261H587.668H604.873L596.27 257.356L587.668 242.451Z" fill="#E6E6E6"/>
<path d="M572.72 245.299L564.117 260.204L555.515 275.109H572.72H589.925L581.323 260.204L572.72 245.299Z" fill="#E6E6E6"/>
<path d="M566.67 240.933C569.422 240.933 571.652 238.702 571.652 235.949C571.652 233.196 569.422 230.965 566.67 230.965C563.918 230.965 561.688 233.196 561.688 235.949C561.688 238.702 563.918 240.933 566.67 240.933Z" fill="#E6E6E6"/>
<path d="M314.425 468C488.077 468 628.85 457.999 628.85 445.662C628.85 433.325 488.077 423.323 314.425 423.323C140.773 423.323 0 433.325 0 445.662C0 457.999 140.773 468 314.425 468Z" fill="#E6E6E6"/>
<path d="M560.069 458.171C508.8 449.043 452.735 450.561 393.924 458.171C420.729 435.535 443.863 412.899 417.058 390.263C469.345 401.053 476.668 399.961 534.832 390.263C521.341 412.899 546.578 435.535 560.069 458.171Z" fill="#FF5367"/>
<path opacity="0.2" d="M560.069 458.171C508.8 449.043 452.735 450.561 393.924 458.171C420.729 435.535 443.863 412.899 417.058 390.263C469.345 401.053 476.668 399.961 534.832 390.263C521.341 412.899 546.578 435.535 560.069 458.171Z" fill="black"/>
<path d="M547.564 448.514C504.012 441.228 456.387 442.439 406.43 448.514C429.199 430.445 448.851 412.377 426.081 394.308C470.496 402.921 476.717 402.049 526.125 394.308C514.666 412.377 536.104 430.445 547.564 448.514Z" fill="#FF5367"/>
<path d="M530.975 419.401C543.791 419.401 554.181 409.009 554.181 396.189C554.181 383.369 543.791 372.976 530.975 372.976C518.159 372.976 507.77 383.369 507.77 396.189C507.77 409.009 518.159 419.401 530.975 419.401Z" fill="#2F2E41"/>
<path d="M425.634 369.265L441.713 371.946L449.752 395.177L426.528 409.474L399.73 369.265H424.741H425.634Z" fill="#A0616A"/>
<path d="M471.191 405.006C491.911 405.006 508.707 388.204 508.707 367.478C508.707 346.752 491.911 329.95 471.191 329.95C450.471 329.95 433.674 346.752 433.674 367.478C433.674 388.204 450.471 405.006 471.191 405.006Z" fill="#A0616A"/>
<path d="M263.956 230.768C263.956 230.768 172.844 240.596 156.766 238.809C140.687 237.022 133.541 235.235 133.541 235.235C133.541 235.235 122.822 249.532 128.182 255.786C131.183 259.391 134.816 262.418 138.901 264.722C138.901 264.722 148.727 262.041 155.873 264.722C163.019 267.402 235.372 279.018 247.878 268.296C260.383 257.573 263.956 230.768 263.956 230.768Z" fill="#2F2E41"/>
<path d="M270.209 430.025C270.209 430.025 210.361 413.048 199.642 337.991V330.843C199.642 330.843 187.8 351.623 183.563 355.862C178.65 360.776 161.232 405.006 162.125 409.474C163.018 413.941 162.125 415.728 162.125 415.728L136.221 413.048V405.006C136.221 405.006 150.066 363.457 150.959 353.628C151.853 343.799 185.35 275.444 185.35 275.444C185.35 275.444 197.855 249.532 219.293 275.444C240.731 301.356 242.518 319.227 242.518 319.227L270.209 372.839L270.209 430.025Z" fill="#2F2E41"/>
<path d="M136.221 232.555L107.637 222.726C107.637 222.726 80.8395 203.068 87.0923 222.726C93.345 242.384 121.929 285.273 129.968 280.805C138.008 276.338 147.676 265.248 145.522 263.645C143.367 262.041 129.075 250.425 136.221 232.555Z" fill="#2F2E41"/>
<path d="M139.676 399.731L116.602 411.003C116.602 411.003 88.6976 415.298 104.259 423.349C119.821 431.401 162.75 439.99 164.897 432.475C167.043 424.96 166.192 412.488 163.934 412.819C161.677 413.151 146.115 414.761 139.676 399.731Z" fill="#2F2E41"/>
<path d="M258.597 371.052C258.597 371.052 246.984 421.09 266.636 431.812C286.287 442.534 423.848 444.322 434.567 424.664C445.286 405.006 439.927 405.006 439.927 405.006L411.343 372.839L434.567 371.052C434.567 371.052 434.567 363.904 426.528 363.01C418.489 362.117 393.478 353.181 372.04 359.436C350.602 365.691 338.096 346.927 338.096 346.927L258.597 371.052Z" fill="#575A89"/>
<path d="M243.411 214.684L228.226 297.783L332.737 285.273L351.495 210.216L243.411 214.684Z" fill="#3F3D56"/>
<path d="M246.538 217.812L234.032 291.974L329.163 280.806L347.475 213.344L246.538 217.812Z" fill="white"/>
<path d="M231.799 298.676L228.226 297.783L226.439 301.356L255.024 380.881L257.712 379.853L258.596 374.626L231.799 298.676Z" fill="#B3B3B3"/>
<path d="M228.226 296.889L256.81 379.988L364.893 363.904L332.737 285.273L228.226 296.889Z" fill="#D0CDE1"/>
<path d="M242.519 294.209V298.676L322.018 289.741L321.125 285.273L242.519 294.209Z" fill="#3F3D56"/>
<path d="M244.304 303.144L256.81 337.991L338.096 328.163L323.804 295.102L244.304 303.144Z" fill="#3F3D56"/>
<path d="M346.135 352.288L343.455 345.14C343.455 345.14 322.91 309.398 312.191 316.547C301.472 323.695 334.523 358.542 334.523 358.542H345.242L346.135 352.288Z" fill="#A0616A"/>
<path d="M278.248 357.649L275.568 346.927C275.568 346.927 268.422 313.866 280.928 315.653C293.433 317.44 297.006 348.714 297.006 348.714L296.113 355.862L278.248 357.649Z" fill="#A0616A"/>
<path d="M299.686 353.181C299.686 353.181 276.462 349.607 275.568 354.968C274.675 360.329 270.209 440.747 292.54 443.428C314.872 446.108 425.635 457.724 414.023 430.025C402.41 402.325 384.545 405.9 384.545 405.9L308.619 413.941L299.686 353.181Z" fill="#575A89"/>
<path d="M369.806 363.457L346.135 346.927L330.503 358.989L350.155 380.434L369.806 363.457Z" fill="#575A89"/>
<path opacity="0.2" d="M306.386 379.541L309.958 413.495L371.593 409.921L317.997 409.027L306.386 379.541Z" fill="black"/>
<path d="M489.71 418.973C514.376 418.973 534.372 398.971 534.372 374.297C534.372 349.623 514.376 329.62 489.71 329.62C465.043 329.62 445.047 349.623 445.047 374.297C445.047 398.971 465.043 418.973 489.71 418.973Z" fill="#2F2E41"/>
<path d="M259.937 243.724L315.318 241.795L320.677 221.386L263.51 223.111L259.937 243.724Z" fill="#FF5367"/>
<path d="M245.645 255.34L329.61 252.659L330.503 249.085L246.538 252.042L245.645 255.34Z" fill="#E6E6E6"/>
<path d="M243.858 264.275L327.824 261.594L328.717 258.02L244.751 260.977L243.858 264.275Z" fill="#E6E6E6"/>
<path d="M242.965 271.423L326.93 268.743L327.824 265.169L243.858 268.125L242.965 271.423Z" fill="#E6E6E6"/>
</svg>
