<svg width="282" height="210" viewBox="0 0 282 210" fill="none" xmlns="http://www.w3.org/2000/svg">
<path d="M281.24 184.156H-6.10352e-05V184.297H281.24V184.156Z" fill="#EBEBEB"/>
<path d="M97.433 187.745H84.3947V187.885H97.433V187.745Z" fill="#EBEBEB"/>
<path d="M258.049 190.76H226.173V190.901H258.049V190.76Z" fill="#EBEBEB"/>
<path d="M55.9047 190.76H24.029V190.901H55.9047V190.76Z" fill="#EBEBEB"/>
<path d="M133.308 159.07H24.6984C23.8476 159.068 23.0321 158.729 22.431 158.127C21.8299 157.525 21.4922 156.709 21.4922 155.858V3.18364C21.4997 2.33768 21.8405 1.52881 22.4408 0.932716C23.0411 0.336621 23.8524 0.00144917 24.6984 0H133.308C134.16 0 134.976 0.338381 135.579 0.940704C136.181 1.54303 136.52 2.35995 136.52 3.21176V155.858C136.52 156.71 136.181 157.526 135.579 158.129C134.976 158.731 134.16 159.07 133.308 159.07ZM24.6984 0.112497C23.8848 0.113987 23.1051 0.438209 22.5304 1.014C21.9557 1.58979 21.6329 2.3701 21.6329 3.18364V155.858C21.6329 156.671 21.9557 157.452 22.5304 158.027C23.1051 158.603 23.8848 158.927 24.6984 158.929H133.308C134.121 158.926 134.901 158.601 135.476 158.026C136.051 157.451 136.376 156.671 136.379 155.858V3.18364C136.376 2.37003 136.051 1.5906 135.476 1.01529C134.901 0.439978 134.121 0.115461 133.308 0.112497H24.6984Z" fill="#EBEBEB"/>
<path d="M254.978 159.07H146.363C145.512 159.067 144.697 158.727 144.095 158.126C143.494 157.524 143.154 156.709 143.151 155.858V3.18364C143.16 2.33717 143.502 1.5283 144.103 0.932364C144.705 0.336424 145.517 0.00143336 146.363 0H254.978C255.823 0.00292743 256.633 0.338753 257.232 0.93469C257.831 1.53063 258.171 2.33865 258.179 3.18364V155.858C258.179 156.279 258.097 156.696 257.937 157.085C257.776 157.474 257.541 157.828 257.243 158.126C256.946 158.425 256.593 158.661 256.205 158.823C255.816 158.985 255.399 159.069 254.978 159.07ZM146.363 0.112497C145.549 0.115461 144.77 0.439978 144.195 1.01529C143.619 1.5906 143.295 2.37003 143.292 3.18364V155.858C143.295 156.671 143.619 157.451 144.195 158.026C144.77 158.601 145.549 158.926 146.363 158.929H254.978C255.792 158.926 256.571 158.601 257.146 158.026C257.722 157.451 258.046 156.671 258.049 155.858V3.18364C258.046 2.37003 257.722 1.5906 257.146 1.01529C256.571 0.439978 255.792 0.115461 254.978 0.112497H146.363Z" fill="#EBEBEB"/>
<path d="M177.221 139.512H164.233V184.46H177.221V139.512Z" fill="#E6E6E6"/>
<path d="M168.024 139.512H155.036V184.46H168.024V139.512Z" fill="#E6E6E6"/>
<path d="M165.56 184.46H168.024V177.44H162.967L165.56 184.46Z" fill="#F0F0F0"/>
<path d="M102.737 139.512H89.7494V184.46H102.737V139.512Z" fill="#E6E6E6"/>
<path d="M168.03 139.512H100.588V181.006H168.03V139.512Z" fill="#F0F0F0"/>
<path d="M163.828 171.669H137.392C136.711 171.666 136.059 171.394 135.577 170.913C135.096 170.431 134.824 169.779 134.821 169.098V143.837C134.823 143.157 135.094 142.504 135.576 142.023C136.058 141.543 136.711 141.273 137.392 141.273H163.8C164.481 141.273 165.134 141.543 165.616 142.023C166.098 142.504 166.369 143.157 166.371 143.837V169.098C166.368 169.775 166.1 170.422 165.624 170.903C165.149 171.384 164.504 171.659 163.828 171.669ZM137.392 141.858C136.862 141.858 136.355 142.067 135.98 142.44C135.604 142.813 135.392 143.32 135.389 143.849V169.11C135.386 169.373 135.435 169.634 135.533 169.878C135.631 170.122 135.776 170.344 135.96 170.532C136.144 170.72 136.363 170.87 136.605 170.974C136.846 171.077 137.106 171.132 137.369 171.135H163.806C164.336 171.138 164.845 170.93 165.223 170.558C165.6 170.186 165.815 169.679 165.819 169.149V143.837C165.819 143.576 165.768 143.316 165.667 143.074C165.567 142.832 165.42 142.612 165.234 142.428C165.049 142.243 164.829 142.096 164.586 141.996C164.344 141.897 164.085 141.846 163.823 141.846L137.392 141.858Z" fill="#E0E0E0"/>
<path d="M131.193 171.669H104.756C104.076 171.666 103.423 171.394 102.942 170.913C102.461 170.431 102.189 169.779 102.186 169.098V143.837C102.187 143.157 102.459 142.504 102.941 142.023C103.423 141.543 104.076 141.273 104.756 141.273H131.193C131.874 141.273 132.527 141.543 133.009 142.023C133.491 142.504 133.762 143.157 133.763 143.837V169.098C133.762 169.78 133.491 170.433 133.009 170.914C132.527 171.396 131.874 171.668 131.193 171.669ZM104.756 141.858C104.494 141.857 104.235 141.908 103.993 142.008C103.75 142.107 103.53 142.254 103.345 142.439C103.159 142.624 103.012 142.844 102.912 143.085C102.811 143.327 102.76 143.587 102.76 143.849V169.11C102.76 169.372 102.811 169.632 102.912 169.874C103.012 170.116 103.159 170.336 103.344 170.522C103.53 170.707 103.75 170.854 103.992 170.955C104.234 171.055 104.494 171.107 104.756 171.107H131.193C131.723 171.105 132.23 170.894 132.605 170.52C132.98 170.146 133.192 169.639 133.195 169.11V143.837C133.192 143.308 132.98 142.802 132.605 142.429C132.23 142.056 131.722 141.846 131.193 141.846L104.756 141.858Z" fill="#E0E0E0"/>
<path d="M128.741 149.254C128.25 149.254 127.771 149.109 127.363 148.837C126.955 148.564 126.637 148.177 126.449 147.724C126.261 147.271 126.212 146.773 126.307 146.292C126.403 145.811 126.638 145.369 126.985 145.022C127.331 144.674 127.772 144.438 128.253 144.341C128.734 144.245 129.233 144.293 129.686 144.48C130.139 144.667 130.527 144.984 130.8 145.391C131.074 145.799 131.22 146.278 131.221 146.768C131.221 147.426 130.96 148.058 130.495 148.524C130.03 148.99 129.399 149.253 128.741 149.254Z" fill="#FAFAFA"/>
<path d="M139.867 149.254C139.376 149.257 138.895 149.115 138.486 148.845C138.076 148.576 137.755 148.19 137.564 147.738C137.374 147.286 137.321 146.788 137.414 146.306C137.506 145.824 137.739 145.381 138.084 145.032C138.428 144.682 138.869 144.443 139.349 144.344C139.83 144.245 140.329 144.291 140.783 144.476C141.238 144.66 141.627 144.975 141.903 145.381C142.178 145.788 142.327 146.266 142.33 146.757V146.807C142.323 147.457 142.06 148.078 141.599 148.535C141.139 148.993 140.516 149.251 139.867 149.254Z" fill="#FAFAFA"/>
<path d="M103.052 184.46H100.583V177.44H105.639L103.052 184.46Z" fill="#F0F0F0"/>
<path d="M98.6028 139.512H85.6151V184.46H98.6028V139.512Z" fill="#E6E6E6"/>
<path d="M96.1336 184.46H98.6028V177.44H93.5461L96.1336 184.46Z" fill="#F0F0F0"/>
<path d="M98.6026 139.512H31.1612V181.006H98.6026V139.512Z" fill="#F0F0F0"/>
<path d="M94.4011 171.669H67.9645C67.2827 171.669 66.6289 171.398 66.1468 170.916C65.6648 170.434 65.394 169.78 65.394 169.098V143.837C65.3954 143.157 65.6669 142.504 66.1488 142.023C66.6307 141.543 67.2837 141.273 67.9645 141.273H94.3729C95.0537 141.273 95.7067 141.543 96.1886 142.023C96.6705 142.504 96.942 143.157 96.9435 143.837V169.098C96.9435 169.775 96.6766 170.425 96.2006 170.906C95.7246 171.388 95.0779 171.662 94.4011 171.669ZM67.9645 141.858C67.7025 141.857 67.443 141.908 67.2008 142.008C66.9585 142.107 66.7384 142.254 66.5529 142.439C66.3674 142.624 66.2202 142.844 66.1198 143.085C66.0194 143.327 65.9677 143.587 65.9677 143.849V169.11C65.9647 169.373 66.0136 169.634 66.1115 169.878C66.2094 170.122 66.3544 170.344 66.5382 170.532C66.7221 170.72 66.9412 170.87 67.183 170.974C67.4248 171.077 67.6846 171.132 67.9476 171.135H94.3842C94.9148 171.138 95.4251 170.931 95.8035 170.558C96.1818 170.186 96.3976 169.68 96.4035 169.149V143.837C96.4005 143.309 96.189 142.804 95.815 142.431C95.441 142.058 94.9349 141.848 94.4067 141.846L67.9645 141.858Z" fill="#E0E0E0"/>
<path d="M61.7659 171.669H35.363C34.6813 171.669 34.0275 171.398 33.5454 170.916C33.0633 170.434 32.7925 169.78 32.7925 169.099V143.837C32.7925 143.5 32.859 143.166 32.9883 142.855C33.1175 142.543 33.307 142.26 33.5457 142.022C33.7845 141.784 34.0679 141.595 34.3798 141.466C34.6916 141.338 35.0257 141.272 35.363 141.273H61.7659C62.1032 141.272 62.4373 141.338 62.7492 141.466C63.061 141.595 63.3444 141.784 63.5832 142.022C63.822 142.26 64.0114 142.543 64.1406 142.855C64.2699 143.166 64.3364 143.5 64.3364 143.837V169.099C64.3349 169.78 64.0636 170.433 63.5819 170.914C63.1001 171.396 62.4472 171.668 61.7659 171.669ZM35.363 141.858C35.1006 141.856 34.8405 141.906 34.5976 142.006C34.3547 142.105 34.1339 142.252 33.9478 142.437C33.7617 142.622 33.614 142.842 33.5133 143.084C33.4125 143.326 33.3606 143.586 33.3606 143.849V169.11C33.3576 169.373 33.4065 169.634 33.5044 169.878C33.6023 170.122 33.7473 170.344 33.9312 170.532C34.115 170.72 34.3341 170.87 34.5759 170.974C34.8178 171.077 35.0776 171.132 35.3405 171.135H61.7771C62.0398 171.135 62.3001 171.084 62.543 170.984C62.7859 170.884 63.0067 170.737 63.1927 170.552C63.3787 170.366 63.5263 170.146 63.627 169.903C63.7277 169.661 63.7796 169.401 63.7796 169.138V143.826C63.7796 143.564 63.7277 143.304 63.6269 143.062C63.5262 142.819 63.3785 142.599 63.1924 142.414C63.0063 142.229 62.7855 142.083 62.5426 141.983C62.2997 141.884 62.0396 141.834 61.7771 141.835L35.363 141.858Z" fill="#E0E0E0"/>
<path d="M59.3194 149.254C58.8288 149.255 58.3489 149.111 57.9404 148.839C57.5318 148.568 57.213 148.181 57.0242 147.728C56.8355 147.275 56.7852 146.777 56.8798 146.295C56.9744 145.814 57.2097 145.371 57.5558 145.024C57.9019 144.676 58.3434 144.439 58.8243 144.342C59.3053 144.245 59.8042 144.293 60.2578 144.48C60.7115 144.666 61.0997 144.984 61.3732 145.391C61.6466 145.798 61.7932 146.277 61.7943 146.768C61.7958 147.094 61.7329 147.417 61.6092 147.719C61.4855 148.02 61.3034 148.294 61.0734 148.525C60.8435 148.756 60.5701 148.94 60.2691 149.065C59.9681 149.19 59.6454 149.254 59.3194 149.254Z" fill="#FAFAFA"/>
<path d="M70.4449 149.254C69.9543 149.257 69.4738 149.115 69.064 148.845C68.6543 148.576 68.3337 148.19 68.1429 147.738C67.9521 147.286 67.8996 146.788 67.992 146.306C68.0844 145.824 68.3177 145.381 68.6622 145.032C69.0068 144.682 69.4471 144.443 69.9276 144.344C70.4081 144.245 70.9072 144.291 71.3617 144.476C71.8163 144.66 72.2058 144.975 72.4812 145.381C72.7565 145.788 72.9052 146.266 72.9086 146.757V146.807C72.9012 147.457 72.6388 148.078 72.1778 148.535C71.7169 148.993 71.0945 149.251 70.4449 149.254Z" fill="#FAFAFA"/>
<path d="M33.6249 184.46H31.1612V177.44H36.2123L33.6249 184.46Z" fill="#F0F0F0"/>
<path d="M150.34 14.9171H126.176V39.0813H150.34V14.9171Z" fill="#EBEBEB"/>
<path d="M151.414 14.9226H150.345V39.0868H151.414V14.9226Z" fill="#E0E0E0"/>
<path d="M147.072 18.1963H129.455V35.8132H147.072V18.1963Z" fill="white"/>
<path d="M141.211 29.9466C140.824 30.3345 140.364 30.6423 139.858 30.8523C139.352 31.0623 138.809 31.1703 138.261 31.1703C137.713 31.1703 137.17 31.0623 136.664 30.8523C136.158 30.6423 135.698 30.3345 135.311 29.9466C134.53 29.1642 134.092 28.1042 134.092 26.9992C134.092 25.8941 134.53 24.8342 135.311 24.0518C136.094 23.271 137.155 22.8326 138.261 22.8326C139.367 22.8326 140.428 23.271 141.211 24.0518C141.991 24.8342 142.43 25.8941 142.43 26.9992C142.43 28.1042 141.991 29.1642 141.211 29.9466Z" fill="#F5F5F5"/>
<path d="M126.67 45.9885H98.3383V74.3207H126.67V45.9885Z" fill="#EBEBEB"/>
<path d="M127.925 45.9941H126.671V74.3263H127.925V45.9941Z" fill="#E0E0E0"/>
<path d="M122.834 49.8301H102.18V70.4844H122.834V49.8301Z" fill="white"/>
<path d="M116.906 55.7473H108.097V64.5558H116.906V55.7473Z" fill="#F5F5F5"/>
<path d="M253.397 36.8765H238.059V40.4595H253.397V36.8765Z" fill="#E6E6E6"/>
<path d="M238.059 36.8765H174.566V40.4595H238.059V36.8765Z" fill="#F5F5F5"/>
<path d="M210.643 17.8531H192.767V36.8819H210.643V17.8531Z" fill="#E0E0E0"/>
<path d="M192.768 17.8531H188.189V36.8819H192.768V17.8531Z" fill="#F0F0F0"/>
<path d="M215.329 14.9171H201.902V36.8764H215.329V14.9171Z" fill="#E6E6E6"/>
<path d="M201.908 14.9171H198.027V36.8764H201.908V14.9171Z" fill="#F0F0F0"/>
<path d="M217.185 17.8531H205.862V36.8819H217.185V17.8531Z" fill="#F0F0F0"/>
<path d="M205.862 17.8531H203.275V36.8819H205.862V17.8531Z" fill="#FAFAFA"/>
<path d="M229.976 21.0704H215.126V36.8761H229.976V21.0704Z" fill="#E6E6E6"/>
<path d="M215.126 21.0704H211.324V36.8761H215.126V21.0704Z" fill="#FAFAFA"/>
<path d="M233.868 18.6349H222.714V36.8818H233.868V18.6349Z" fill="#E6E6E6"/>
<path d="M222.714 18.6349H219.491V36.8818H222.714V18.6349Z" fill="#F0F0F0"/>
<path d="M236.832 21.0704H225.999V36.8761H236.832V21.0704Z" fill="#F0F0F0"/>
<path d="M225.999 21.0704H223.85V36.8761H225.999V21.0704Z" fill="#FAFAFA"/>
<path d="M228.98 143.106C233.784 136.829 245.219 134.495 249.173 130.535C254.348 125.343 254.325 117.553 249.916 114.74C246.091 112.299 233.401 128.802 231.978 130.659C227.056 137.009 225.633 141.717 224.711 146.279C224.818 142.403 224.919 138.837 225.003 136.092C225.268 127.132 225.6 124.246 225.757 123.363C226.32 122.924 226.916 122.424 227.276 122.154C230.347 119.865 237.153 117.137 240.556 113.812C245.528 108.952 244.724 103.125 241.237 100.971C237.597 98.7209 231.151 104.059 227.737 109.363C224.323 114.667 225.78 119.752 224.823 124.123C224.621 124.989 224.413 128.268 224.221 132.819C223.412 128.334 220.931 124.324 217.28 121.597C212.573 117.84 208.506 113.261 204.625 113.852C200.744 114.442 202.853 120.5 205.901 124.753C208.635 128.538 222.129 132.318 224.115 135.361C223.878 141.548 223.67 149.339 223.524 156.617C222.461 152.86 223.192 152.545 218.833 146.774C216.245 143.354 205.615 139.124 204.355 141.486C203.095 143.849 205.013 148.281 209.023 151.392C212.258 153.9 219.407 153.895 221.1 155.453C221.488 155.813 222.787 157.208 223.496 158.012C223.322 166.888 223.248 174.723 223.333 177.401L224.03 177.429C223.996 176.737 224.075 172.22 224.216 166.241C225.96 163.063 237.715 161.179 241.321 157.894C245.112 154.435 247.834 150.396 246.209 147.69C244.853 145.441 234.183 148.5 229.813 152.235C226.921 154.721 225.155 157.382 224.345 160.948C224.441 156.876 224.559 152.511 224.666 148.377C225.555 147.37 227.54 144.991 228.98 143.106Z" fill="#E6E6E6"/>
<path d="M230.004 184.342H217.821C217.151 184.342 216.578 183.475 216.448 182.272L215.582 174.397H232.237L231.376 182.272C231.236 183.475 230.668 184.342 230.004 184.342Z" fill="#F0F0F0"/>
<path d="M232.586 177.44H215.233C214.817 177.44 214.468 176.878 214.423 176.101L214.069 170.274C214.013 169.38 214.39 168.587 214.879 168.587H232.946C233.43 168.587 233.806 169.368 233.75 170.274L233.396 176.101C233.356 176.866 233.002 177.44 232.586 177.44Z" fill="#F0F0F0"/>
<path d="M140.62 209.558C200.852 209.558 249.679 206.707 249.679 203.19C249.679 199.674 200.852 196.823 140.62 196.823C80.3883 196.823 31.5607 199.674 31.5607 203.19C31.5607 206.707 80.3883 209.558 140.62 209.558Z" fill="#F5F5F5"/>
<path d="M120.647 56.6304C119.403 59.651 112.086 59.4429 104.419 56.2817C96.7524 53.1206 91.5382 48.1089 92.7812 45.0884C93.0737 44.3909 93.9062 41.7753 94.7387 41.4154C97.5961 40.206 103.035 42.9228 108.924 45.3527C114.409 47.6026 120.68 49.0707 121.653 52.0462C122.238 53.8574 121.001 55.7699 120.647 56.6304Z" fill="#FF5367"/>
<path opacity="0.2" d="M121.653 52.0465C122.12 54.4145 121.091 55.5508 120.646 56.6307C120.202 57.7107 118.903 58.4194 117.086 58.6669C116.859 58.7055 116.63 58.7318 116.4 58.7456C115.007 58.8276 113.609 58.754 112.232 58.5263C112.035 58.5263 111.838 58.4644 111.636 58.4307C110.019 58.1405 108.427 57.7307 106.871 57.2044L106.309 57.0132C105.685 56.7938 105.043 56.552 104.402 56.2876C103.761 56.0232 103.153 55.7251 102.551 55.4608L102.034 55.2133C100.616 54.5121 99.2496 53.7114 97.9448 52.8171L97.4835 52.4909C96.3445 51.6858 95.301 50.7535 94.373 49.7122C94.2324 49.5547 94.103 49.4028 93.9793 49.2453C92.77 47.7154 92.2918 46.253 92.7699 45.0886C93.0849 44.3405 93.7599 41.7812 94.7274 41.41C95.9173 41.0748 97.1767 41.0748 98.3666 41.41L98.9291 41.545C101.742 42.265 105.285 43.868 108.902 45.3586C113.165 47.1192 118.211 48.9472 120.686 51.0565C120.833 51.1805 120.974 51.3119 121.108 51.4503C121.305 51.6342 121.488 51.8335 121.653 52.0465Z" fill="black"/>
<g opacity="0.2">
<path opacity="0.2" d="M99.2104 41.061L98.9517 41.5335L94.3843 49.7063C94.2437 49.5488 94.1143 49.397 93.9906 49.2395L98.3779 41.3985L98.7211 40.791L99.2104 41.061Z" fill="black"/>
</g>
<g opacity="0.2">
<path opacity="0.2" d="M102.664 44.3967L97.956 52.8339L97.4948 52.5077L102.175 44.1379L102.664 44.3967Z" fill="black"/>
</g>
<g opacity="0.2">
<path opacity="0.2" d="M111.32 49.2339L106.871 57.2043L106.309 57.013L110.809 48.9358L111.32 49.2339Z" fill="black"/>
</g>
<g opacity="0.2">
<path opacity="0.2" d="M107.293 46.9839L102.563 55.4605L102.045 55.213L106.804 46.6858L107.293 46.9839Z" fill="black"/>
</g>
<g opacity="0.2">
<path opacity="0.2" d="M116.569 50.7749L112.232 58.5259C112.035 58.5259 111.838 58.464 111.636 58.4303L116.074 50.4937L116.569 50.7749Z" fill="black"/>
</g>
<path d="M121.62 53.9981C120.376 57.0186 113.149 56.9005 105.476 53.7338C97.8041 50.567 92.5955 45.5609 93.8443 42.5404C95.093 39.5199 102.315 39.6436 109.987 42.8048C117.66 45.9659 122.863 50.9607 121.62 53.9981Z" fill="#FF5367"/>
<path opacity="0.2" d="M119.009 52.9012C118.132 55.033 112.496 54.7349 106.427 52.2319C100.358 49.7288 96.1503 45.9658 97.0277 43.834C97.9052 41.7022 103.541 42.0003 109.616 44.5034C115.691 47.0064 119.893 50.7694 119.009 52.9012Z" fill="white"/>
<path d="M159.413 29.3275C161.415 31.9093 157.601 38.1584 151.037 43.2376C144.473 48.3168 137.538 50.3418 135.541 47.7375C135.08 47.1413 133.212 45.1445 133.325 44.2107C133.702 41.134 138.758 37.7703 143.798 33.8667C148.489 30.2331 152.871 25.5195 155.936 26.1551C157.798 26.5657 158.845 28.5963 159.413 29.3275Z" fill="#FF5367"/>
<path opacity="0.2" d="M155.936 26.178C158.226 26.9542 158.698 28.4279 159.413 29.3279C160.127 30.2278 160.099 31.7297 159.413 33.434C159.334 33.6421 159.238 33.8502 159.137 34.064C158.521 35.3144 157.766 36.4917 156.887 37.5738C156.769 37.7313 156.64 37.8832 156.51 38.0407C155.452 39.3023 154.302 40.483 153.068 41.5731L152.635 41.9499C152.134 42.383 151.605 42.8162 151.06 43.238C150.514 43.6599 149.969 44.0592 149.417 44.4361C149.265 44.5486 149.102 44.6555 148.95 44.7623C147.636 45.6439 146.26 46.4297 144.833 47.1135C144.659 47.2035 144.49 47.2766 144.327 47.3554C143.059 47.942 141.728 48.3835 140.361 48.6716C140.159 48.7166 139.962 48.7503 139.765 48.7784C137.836 49.0653 136.328 48.7785 135.558 47.7604C135.063 47.1191 133.178 45.2573 133.342 44.2392C133.636 43.0357 134.261 41.9387 135.147 41.0725C135.271 40.9318 135.406 40.7912 135.547 40.645C137.577 38.5413 140.721 36.2858 143.815 33.8952C147.465 31.0828 151.56 27.6011 154.615 26.5098C154.799 26.4421 154.987 26.3839 155.177 26.3355C155.426 26.2645 155.68 26.2119 155.936 26.178Z" fill="black"/>
<g opacity="0.2">
<path opacity="0.2" d="M135.249 40.1836L135.53 40.6448L140.345 48.6714C140.142 48.7164 139.945 48.7502 139.748 48.7783L135.13 41.0611L134.77 40.4986L135.249 40.1836Z" fill="black"/>
</g>
<g opacity="0.2">
<path opacity="0.2" d="M139.855 38.8451L144.816 47.1136C144.642 47.2036 144.473 47.2767 144.31 47.3554L139.371 39.132L139.855 38.8451Z" fill="black"/>
</g>
<g opacity="0.2">
<path opacity="0.2" d="M148.354 33.7489L153.051 41.5786L152.618 41.9555L147.871 34.0358L148.354 33.7489Z" fill="black"/>
</g>
<g opacity="0.2">
<path opacity="0.2" d="M144.406 36.1168L149.4 44.4359C149.249 44.5484 149.085 44.6553 148.934 44.7621L143.916 36.4037L144.406 36.1168Z" fill="black"/>
</g>
<g opacity="0.2">
<path opacity="0.2" d="M152.303 29.9521L156.87 37.5738C156.752 37.7313 156.623 37.8831 156.494 38.0406L151.819 30.2446L152.303 29.9521Z" fill="black"/>
</g>
<path d="M149.334 41.0305C155.894 35.9495 159.591 29.7381 157.592 27.1569C155.593 24.5757 148.654 26.6021 142.094 31.6831C135.534 36.7641 131.837 42.9755 133.837 45.5567C135.836 48.1379 142.774 46.1114 149.334 41.0305Z" fill="#FF5367"/>
<path opacity="0.2" d="M148.521 39.4647C153.713 35.4433 156.776 30.704 155.363 28.8792C153.949 27.0545 148.595 28.8352 143.403 32.8566C138.211 36.8781 135.148 41.6173 136.561 43.4421C137.975 45.2669 143.329 43.4861 148.521 39.4647Z" fill="white"/>
<path d="M132.262 17.2344C131.62 20.9356 123.318 22.4992 113.913 20.8118C104.509 19.1244 97.4159 14.7764 98.074 11.0753C98.2258 10.2147 98.4902 7.08166 99.3733 6.4573C102.293 4.39863 109.076 6.11982 116.298 7.40227C123.048 8.60036 130.433 8.69597 132.262 11.8065C133.37 13.7189 132.447 16.177 132.262 17.2344Z" fill="#FF5367"/>
<path opacity="0.2" d="M132.262 11.8119C133.387 14.3656 132.492 15.8899 132.262 17.2173C132.031 18.5448 130.743 19.6529 128.763 20.3841C128.521 20.4797 128.268 20.5585 128.009 20.6372C126.461 21.0725 124.868 21.3347 123.262 21.4191C123.031 21.4191 122.806 21.4191 122.57 21.4584C120.678 21.528 118.783 21.4585 116.9 21.2503L116.242 21.1659C115.483 21.0703 114.701 20.9578 113.919 20.8172C113.137 20.6766 112.378 20.5191 111.63 20.3447C111.416 20.2997 111.202 20.2435 110.989 20.1929C109.221 19.7565 107.488 19.1925 105.803 18.5054C105.594 18.4267 105.398 18.3367 105.201 18.2579C103.721 17.6282 102.317 16.8338 101.016 15.8899C100.819 15.7493 100.639 15.6086 100.453 15.4624C98.7096 14.0393 97.8153 12.5094 98.0684 11.0863C98.2372 10.1638 98.3721 7.14893 99.3621 6.46833C100.352 5.78773 101.77 5.57398 103.457 5.56836H104.132C107.507 5.68086 111.855 6.6202 116.293 7.40767C121.524 8.34139 127.649 9.15698 130.945 10.9232C131.139 11.0256 131.326 11.1383 131.508 11.2607C131.773 11.4245 132.025 11.6088 132.262 11.8119Z" fill="black"/>
<g opacity="0.2">
<path opacity="0.2" d="M104.317 4.99482L104.137 5.58543L101.01 15.9013C100.813 15.7607 100.633 15.6201 100.448 15.4738L103.451 5.5798L103.687 4.8092L104.317 4.99482Z" fill="black"/>
</g>
<g opacity="0.2">
<path opacity="0.2" d="M109.02 7.87485L105.797 18.5001C105.589 18.4214 105.392 18.3314 105.195 18.2526L108.401 7.67798L109.02 7.87485Z" fill="black"/>
</g>
<g opacity="0.2">
<path opacity="0.2" d="M119.949 11.2047L116.895 21.2674L116.236 21.1831L119.324 11.0134L119.949 11.2047Z" fill="black"/>
</g>
<g opacity="0.2">
<path opacity="0.2" d="M114.87 9.66331L111.625 20.3504C111.411 20.3054 111.197 20.2492 110.983 20.1986L114.246 9.46082L114.87 9.66331Z" fill="black"/>
</g>
<g opacity="0.2">
<path opacity="0.2" d="M126.232 11.6433L123.256 21.436C123.026 21.436 122.801 21.436 122.564 21.4754L125.607 11.4576L126.232 11.6433Z" fill="black"/>
</g>
<path d="M132.7 14.003C133.358 10.3023 126.266 5.94513 116.858 4.27105C107.45 2.59696 99.2898 4.23988 98.6313 7.9406C97.9727 11.6413 105.065 15.9985 114.473 17.6726C123.881 19.3466 132.041 17.7037 132.7 14.003Z" fill="#FF5367"/>
<path opacity="0.2" d="M129.498 13.4371C129.964 10.8222 124.306 7.62844 116.862 6.30376C109.418 4.97908 103.006 6.02507 102.54 8.64005C102.075 11.255 107.732 14.4487 115.177 15.7734C122.621 17.0981 129.033 16.0521 129.498 13.4371Z" fill="white"/>
<path d="M181.366 111.725L123.481 115.1C121.437 115.221 119.43 115.708 117.558 116.54L54.6844 144.664C53.5812 145.149 52.6778 145.998 52.125 147.069C51.5722 148.14 51.4035 149.368 51.647 150.548L62.036 199.68C62.2117 200.472 62.5659 201.212 63.0716 201.845C63.5774 202.479 64.2212 202.988 64.954 203.334C65.6867 203.681 66.4889 203.855 67.2993 203.843C68.1097 203.832 68.9067 203.636 69.6295 203.269L131.688 172.288L188.994 170.37C189.699 170.351 190.392 170.182 191.027 169.874C191.661 169.567 192.223 169.127 192.675 168.586C193.127 168.044 193.458 167.412 193.647 166.732C193.835 166.053 193.877 165.341 193.769 164.644L186.102 117.598C185.703 115.168 183.858 111.652 181.366 111.725Z" fill="#FF5367"/>
<path opacity="0.1" d="M181.366 111.725L123.481 115.1C121.437 115.221 119.43 115.708 117.558 116.54L54.6844 144.664C53.5812 145.149 52.6778 145.998 52.125 147.069C51.5722 148.14 51.4035 149.368 51.647 150.548L62.036 199.68C62.2117 200.472 62.5659 201.212 63.0716 201.845C63.5774 202.479 64.2212 202.988 64.954 203.334C65.6867 203.681 66.4889 203.855 67.2993 203.843C68.1097 203.832 68.9067 203.636 69.6295 203.269L131.688 172.288L188.994 170.37C189.699 170.351 190.392 170.182 191.027 169.874C191.661 169.567 192.223 169.127 192.675 168.586C193.127 168.044 193.458 167.412 193.647 166.732C193.835 166.053 193.877 165.341 193.769 164.644L186.102 117.598C185.703 115.168 183.858 111.652 181.366 111.725Z" fill="black"/>
<path d="M65.1798 79.7339L34.8028 107.736L89.3156 166.873L119.693 138.871L65.1798 79.7339Z" fill="#FF5367"/>
<path opacity="0.5" d="M119.685 138.876L89.3051 166.877L34.8007 107.743L54.735 89.3667L65.1803 79.7371L66.9183 81.627L119.685 138.876Z" fill="#FAFAFA"/>
<path d="M65.3747 83.3493L38.5709 108.057L89.5611 163.373L116.365 138.665L65.3747 83.3493Z" stroke="#FF5367" stroke-miterlimit="10"/>
<path d="M83.4993 129.91C86.5737 127.076 86.1848 121.653 82.6308 117.797C79.0767 113.942 73.7032 113.114 70.6288 115.948C67.5544 118.782 67.9432 124.205 71.4973 128.06C75.0514 131.916 80.4249 132.744 83.4993 129.91Z" fill="#FF5367"/>
<path opacity="0.1" d="M88.9842 142.876L78.1902 146.605L54.7348 89.3667L65.1801 79.7371L66.9181 81.627L88.9842 142.876Z" fill="black"/>
<path d="M91.0873 56.5657L52.2474 70.6486L79.6635 146.261L118.503 132.178L91.0873 56.5657Z" fill="#FF5367"/>
<path opacity="0.5" d="M91.0873 56.5657L52.2474 70.6486L79.6635 146.261L118.503 132.178L91.0873 56.5657Z" fill="#FAFAFA"/>
<path d="M89.8668 59.9756L55.5957 72.4019L81.24 143.128L115.511 130.702L89.8668 59.9756Z" stroke="#FF5367" stroke-miterlimit="10"/>
<path d="M88.5914 109.918C92.5223 108.493 94.2599 103.341 92.4725 98.4115C90.685 93.4818 86.0493 90.6409 82.1184 92.0662C78.1875 93.4915 76.4499 98.6433 78.2373 103.573C80.0248 108.503 84.6604 111.344 88.5914 109.918Z" fill="#FF5367"/>
<path d="M181.743 113.722L124.651 116.939C122.627 117.05 120.642 117.537 118.796 118.374L56.8443 146.34C55.7531 146.833 54.8629 147.684 54.3208 148.752C53.7787 149.82 53.6173 151.041 53.8632 152.213L64.2522 201.368C64.4195 202.154 64.7649 202.892 65.2618 203.524C65.7586 204.156 66.3938 204.665 67.1184 205.013C67.843 205.362 68.6378 205.539 69.4417 205.532C70.2456 205.525 71.0372 205.334 71.7557 204.973L132.897 174.166L189.415 172.377C190.115 172.355 190.802 172.184 191.43 171.876C192.059 171.567 192.614 171.128 193.059 170.587C193.504 170.047 193.828 169.418 194.011 168.742C194.194 168.066 194.23 167.359 194.118 166.668L186.429 119.628C186.029 117.176 184.207 113.655 181.743 113.722Z" fill="#FF5367"/>
<path opacity="0.2" d="M126.974 125.545L175.961 122.531" stroke="black" stroke-width="2" stroke-linecap="round" stroke-linejoin="round"/>
<path opacity="0.2" d="M121.108 126.811L130.057 167.917" stroke="black" stroke-width="2" stroke-linecap="round" stroke-linejoin="round"/>
<path opacity="0.2" d="M61.4399 163.923L67.7509 195.541C67.7509 195.541 72.5882 182.997 61.4399 163.923Z" fill="#FAFAFA"/>
<path opacity="0.2" d="M62.2669 164.295C62.4863 164.857 118.324 140.896 118.324 140.896C118.475 146.328 117.117 151.696 114.4 156.403C111.683 161.11 107.714 164.971 102.934 167.557C86.1274 176.979 62.2669 164.295 62.2669 164.295Z" fill="#FAFAFA"/>
<path d="M99.3566 165.229C100.692 165.229 101.775 164.146 101.775 162.81C101.775 161.474 100.692 160.391 99.3566 160.391C98.0208 160.391 96.9379 161.474 96.9379 162.81C96.9379 164.146 98.0208 165.229 99.3566 165.229Z" fill="#FF5367"/>
<path opacity="0.2" d="M118.352 140.896C118.352 140.896 125.276 151.318 123.599 169.07L118.352 140.896Z" fill="black"/>
<g opacity="0.2">
<path opacity="0.2" d="M58.7677 151.504L60.0558 150.936" stroke="#FAFAFA" stroke-linecap="round" stroke-linejoin="round"/>
<path opacity="0.2" d="M62.7277 149.755L114.87 126.704" stroke="#FAFAFA" stroke-linecap="round" stroke-linejoin="round" stroke-dasharray="5.2 5.2"/>
<path opacity="0.2" d="M116.208 126.114L117.491 125.546" stroke="#FAFAFA" stroke-linecap="round" stroke-linejoin="round"/>
</g>
<path opacity="0.2" d="M128.617 134.787L177.603 131.767" stroke="black" stroke-width="2" stroke-linecap="round" stroke-linejoin="round"/>
<path opacity="0.2" d="M130.821 146.312L179.808 143.292" stroke="black" stroke-width="2" stroke-linecap="round" stroke-linejoin="round"/>
<path d="M169.07 64.4375C169.07 64.4375 167.838 77.5602 162.962 78.6908C159.942 79.343 156.793 79.0282 153.962 77.7908L149.996 74.7421L148.061 81.4919C148.061 81.4919 150.176 84.3662 154.592 82.375C154.592 82.375 162.467 85.8399 166.82 82.375C171.174 78.9101 172.569 69.4042 172.569 69.4042L169.07 64.4375Z" fill="#B97964"/>
<path d="M172.991 58.0817C172.991 58.0817 169.588 52.2825 171.135 41.7698C172.681 31.257 181.495 29.9577 184.898 30.717C188.301 31.4764 191.086 34.7444 193.403 40.9654C195.721 47.1865 196.576 48.8064 200.44 47.7152C204.304 46.624 214.586 43.2153 217.449 46.2471C218.273 47.0753 218.88 48.0935 219.216 49.2119C219.553 50.3303 219.608 51.5143 219.378 52.6594C219.378 52.6594 233.682 49.1833 232.445 61.9403C231.207 74.6974 210.564 86.6051 190.928 73.9999C171.292 61.3947 172.991 58.0817 172.991 58.0817Z" fill="#263238"/>
<path d="M172.833 88.9561C172.833 88.9561 168.947 122.384 169.076 138.061C169.205 153.737 174.774 190.681 174.774 190.681H181.642C181.642 190.681 180.736 161.139 180.866 151.031C180.995 140.924 182.806 124.201 182.806 124.201C182.806 124.201 185.005 139.231 187.598 144.54C190.191 149.85 204.574 168.643 214.553 174.476L219.215 170.195C219.215 170.195 208.849 157.371 204.962 151.02C201.076 144.67 197.582 142.87 196.154 131.058C194.725 119.246 197.194 100.352 193.049 88.9504L172.833 88.9561Z" fill="#263238"/>
<path opacity="0.2" d="M182.806 124.201L179.819 103.013C179.819 103.013 177.462 115.747 182.103 131.3L182.806 124.201Z" fill="black"/>
<path d="M176.186 192.554L176.416 199.118L181.023 199.501L181.254 198.887V192.093L176.186 192.554Z" fill="#B97964"/>
<path d="M173.997 190.057L174.419 192.515L182.328 192.706L182.828 189.753L173.997 190.057Z" fill="#FF5367"/>
<path d="M212.387 174.931L219.716 168.103L221.33 170.673L215.036 176.433L212.387 174.931Z" fill="#FF5367"/>
<path d="M215.919 174.931L220.757 179.004L223.862 175.353L219.89 171.247L215.919 174.931Z" fill="#B97964"/>
<path d="M224.801 175.072L227.726 176.872C227.859 176.954 227.973 177.064 228.059 177.195C228.145 177.326 228.202 177.474 228.225 177.629C228.248 177.783 228.237 177.941 228.192 178.091C228.148 178.242 228.071 178.38 227.967 178.498C225.847 180.894 220.43 186.98 219.89 187.407C219.221 187.97 218.411 187.025 218.203 186.181C218.203 186.181 219.738 184.145 219.89 182.84C219.954 181.832 219.954 180.821 219.89 179.814C219.878 179.562 219.963 179.314 220.127 179.122L223.395 175.286C223.563 175.086 223.799 174.954 224.057 174.915C224.316 174.875 224.58 174.931 224.801 175.072Z" fill="#263238"/>
<path d="M182.148 199.68L182.756 203.055C182.784 203.209 182.777 203.368 182.737 203.52C182.698 203.671 182.625 203.812 182.525 203.933C182.424 204.054 182.299 204.151 182.157 204.218C182.015 204.285 181.861 204.32 181.704 204.321C178.503 204.321 170.359 204.354 169.678 204.242C168.829 204.101 168.98 202.886 169.481 202.178C169.481 202.178 172.018 201.964 173.081 201.193C173.872 200.573 174.623 199.904 175.331 199.191C175.512 199.014 175.753 198.911 176.006 198.904L181.04 198.786C181.301 198.776 181.558 198.862 181.761 199.026C181.965 199.19 182.102 199.423 182.148 199.68Z" fill="#263238"/>
<path d="M193.786 70.4168L200.806 65.4895C200.806 65.4895 198.938 58.0197 196.171 57.6485C193.404 57.2773 179.668 54.6617 170.932 57.6485C170.932 57.6485 167.794 58.5428 166.826 67.3569L170.561 68.5494C170.561 68.5494 171.9 85.0525 172.727 87.595H192.661C192.661 87.595 192.886 73.4036 193.786 70.4168Z" fill="#FF5367"/>
<path d="M195.299 69.3537C195.299 69.3537 197.959 76.9472 198.432 81.0308C198.432 81.0308 192.11 78.5109 190.479 77.3578L189.241 72.9142L185.056 70.8724L183.813 74.2473L187.306 78.5784C187.306 78.5784 196.829 87.488 201.655 85.4519C206.481 83.4157 199.748 66.2488 199.748 66.2488L195.299 69.3537Z" fill="#B97964"/>
<path d="M177.44 36.1055C177.44 36.1055 175.004 40.9653 175.19 44.9195C175.376 48.8738 177.372 50.4881 181.169 51.045C181.169 51.045 182.789 56.1073 178.537 56.6191C178.211 56.6585 178.098 57.9466 178.121 58.1547C178.233 58.9759 179.049 59.4259 179.808 59.6172C180.608 59.7943 181.424 59.8848 182.244 59.8871C183.104 59.9168 183.959 59.7504 184.746 59.4006C185.532 59.0507 186.229 58.5266 186.783 57.8678C186.873 57.761 187.728 56.6698 187.728 56.6698C187.728 56.6698 185.697 55.6629 186.412 49.0707C187.381 48.4398 188.125 47.5183 188.538 46.4382C188.926 46.2323 189.269 45.9512 189.547 45.6112C189.825 45.2713 190.033 44.8794 190.158 44.4583C190.461 43.1421 189.297 41.3197 187.171 43.1421C187.171 43.1421 183.166 41.1172 181.647 34.0243C180.521 35.1747 179.038 35.9085 177.44 36.1055Z" fill="#B97964"/>
<path d="M178.582 43.8396L178.925 41.241L177.086 43.2771C177.275 43.4791 177.509 43.6348 177.768 43.7324C178.028 43.8299 178.306 43.8666 178.582 43.8396Z" fill="#A24E3F"/>
<path d="M179.651 45.7406C179.651 45.7406 181.591 46.0387 182.525 44.7957" stroke="#222221" stroke-width="0.75" stroke-linecap="round" stroke-linejoin="round"/>
<path d="M181.591 37.6018C182.032 37.4765 182.498 37.4726 182.94 37.5905C183.383 37.7083 183.785 37.9434 184.105 38.2711" stroke="#222221" stroke-linecap="round" stroke-linejoin="round"/>
<path d="M178.233 37.0391C178.233 37.0391 177.108 36.8647 176.607 37.5003" stroke="#222221" stroke-linecap="round" stroke-linejoin="round"/>
<path d="M182.373 41.0216C182.322 41.4153 182.069 41.7022 181.811 41.6684C181.552 41.6347 181.377 41.2916 181.428 40.8978C181.479 40.5041 181.732 40.2172 181.99 40.251C182.249 40.2847 182.424 40.6279 182.373 41.0216Z" fill="#222221"/>
<path d="M177.883 40.151C177.933 39.7597 177.762 39.415 177.5 39.381C177.239 39.347 176.985 39.6366 176.934 40.0278C176.884 40.4191 177.055 40.7638 177.316 40.7978C177.578 40.8318 177.832 40.5422 177.883 40.151Z" fill="#222221"/>
<path d="M181.996 40.251L181.107 39.8629C181.119 39.9602 181.156 40.0527 181.214 40.1314C181.273 40.21 181.351 40.272 181.441 40.3112C181.53 40.3504 181.629 40.3655 181.726 40.3549C181.824 40.3444 181.917 40.3086 181.996 40.251Z" fill="#222221"/>
<path d="M177.586 39.4186L176.697 39.0305C176.709 39.1278 176.746 39.2203 176.804 39.299C176.863 39.3776 176.941 39.4396 177.031 39.4788C177.121 39.518 177.219 39.5331 177.316 39.5225C177.414 39.512 177.507 39.4762 177.586 39.4186Z" fill="#222221"/>
<path d="M172.029 86.7176V89.0632L193.628 89.2432L193.049 86.4532L172.029 86.7176Z" fill="#FF5367"/>
<path opacity="0.4" d="M172.029 86.7176V89.0632L193.628 89.2432L193.049 86.4532L172.029 86.7176Z" fill="white"/>
<path d="M172.294 75.3329L160.414 116.653C160.019 118.037 159.218 119.27 158.116 120.195C157.013 121.119 155.658 121.692 154.227 121.839C153.315 121.926 152.396 121.842 151.515 121.591L128.808 115.061C126.972 114.531 125.422 113.295 124.496 111.624C123.57 109.953 123.345 107.983 123.87 106.146L135.755 64.8146C136.286 62.9814 137.521 61.4334 139.191 60.5098C140.862 59.5862 142.83 59.3624 144.664 59.8872L167.389 66.412C169.22 66.9474 170.765 68.187 171.684 69.8591C172.604 71.5312 172.823 73.4996 172.294 75.3329Z" fill="#FF5367"/>
<path opacity="0.2" d="M172.294 75.3329L160.414 116.653C160.019 118.037 159.218 119.27 158.116 120.195C157.013 121.119 155.658 121.692 154.227 121.839C153.315 121.926 152.396 121.842 151.515 121.591L128.808 115.061C126.972 114.531 125.422 113.295 124.496 111.624C123.57 109.953 123.345 107.983 123.87 106.146L135.755 64.8146C136.286 62.9814 137.521 61.4334 139.191 60.5098C140.862 59.5862 142.83 59.3624 144.664 59.8872L167.389 66.412C169.22 66.9474 170.765 68.187 171.684 69.8591C172.604 71.5312 172.823 73.4996 172.294 75.3329Z" fill="black"/>
<path d="M170.319 75.8224L158.439 117.148C158.139 118.2 157.602 119.169 156.87 119.982C156.138 120.795 155.23 121.43 154.215 121.839C153.304 121.926 152.384 121.842 151.504 121.591L128.808 115.061C126.972 114.531 125.422 113.295 124.496 111.624C123.57 109.953 123.345 107.983 123.869 106.146L135.755 64.8147C136.055 63.7642 136.592 62.7964 137.324 61.9853C138.057 61.1742 138.965 60.5412 139.979 60.1349C140.89 60.0421 141.811 60.1261 142.69 60.3824L165.369 66.9352C167.201 67.4615 168.751 68.6919 169.678 70.3573C170.606 72.0227 170.836 73.9876 170.319 75.8224Z" fill="#FF5367"/>
<path opacity="0.5" d="M170.319 75.8224L158.439 117.148C158.139 118.2 157.602 119.169 156.87 119.982C156.138 120.795 155.23 121.43 154.215 121.839C153.304 121.926 152.384 121.842 151.504 121.591L128.808 115.061C126.972 114.531 125.422 113.295 124.496 111.624C123.57 109.953 123.345 107.983 123.869 106.146L135.755 64.8147C136.055 63.7642 136.592 62.7964 137.324 61.9853C138.057 61.1742 138.965 60.5412 139.979 60.1349C140.89 60.0421 141.811 60.1261 142.69 60.3824L165.369 66.9352C167.201 67.4615 168.751 68.6919 169.678 70.3573C170.606 72.0227 170.836 73.9876 170.319 75.8224Z" fill="#FAFAFA"/>
<path d="M138.382 79.3365L135.951 78.6514L127.202 109.695L129.633 110.38L138.382 79.3365Z" fill="#FAFAFA"/>
<path d="M133.122 111.365L130.693 110.662L139.439 79.6301L141.863 80.3276L133.122 111.365Z" fill="#FAFAFA"/>
<path d="M136.655 112.378L134.225 111.68L142.971 80.6484L145.401 81.3459L136.655 112.378Z" fill="#FAFAFA"/>
<path opacity="0.5" d="M159.546 85.4129L157.115 84.7278L148.366 115.771L150.797 116.456L159.546 85.4129Z" fill="black"/>
<path d="M159.238 76.6381L158.057 80.8511L156.617 80.4461C155.919 80.2482 155.329 79.7818 154.974 79.1492C154.62 78.5166 154.531 77.7693 154.727 77.0712L155.514 74.2588L158.422 75.0913C158.736 75.1884 158.997 75.4059 159.15 75.6959C159.303 75.986 159.335 76.3248 159.238 76.6381Z" fill="#FAFAFA"/>
<path d="M158.546 74.5735L155.638 73.741L156.51 70.6586C156.607 70.3128 156.772 69.9896 156.994 69.7074C157.217 69.4253 157.492 69.1897 157.806 69.0142C158.119 68.8387 158.464 68.7266 158.821 68.6845C159.178 68.6424 159.539 68.671 159.885 68.7687L161.381 69.1906L160.076 73.7298C160.033 73.8867 159.959 74.0334 159.858 74.1612C159.757 74.289 159.632 74.3954 159.489 74.474C159.346 74.5526 159.19 74.6019 159.028 74.619C158.866 74.6361 158.702 74.6206 158.546 74.5735Z" fill="#FAFAFA"/>
<path d="M161.303 75.9349L164.227 76.773L163.451 79.5235C163.355 79.8701 163.191 80.1943 162.969 80.4772C162.747 80.7602 162.472 80.9964 162.158 81.1721C161.844 81.3478 161.498 81.4596 161.141 81.5011C160.784 81.5425 160.422 81.5127 160.076 81.4135L158.558 80.986L159.767 76.7786C159.812 76.6219 159.887 76.4755 159.988 76.3481C160.09 76.2206 160.216 76.1146 160.359 76.0361C160.501 75.9577 160.658 75.9083 160.82 75.8909C160.982 75.8736 161.146 75.8885 161.303 75.9349Z" fill="#FAFAFA"/>
<path d="M165.262 73.1225L164.379 76.2499L161.454 75.4118C161.141 75.3203 160.877 75.1088 160.719 74.8233C160.561 74.5378 160.522 74.2015 160.611 73.8875L161.916 69.3483L163.372 69.7589C163.717 69.8556 164.04 70.0194 164.322 70.2408C164.603 70.4622 164.839 70.7369 165.014 71.0493C165.19 71.3616 165.302 71.7055 165.344 72.0612C165.387 72.4169 165.359 72.7776 165.262 73.1225Z" fill="#FAFAFA"/>
</svg>
